^C:\USERS\JJURADO\DOCUMENTS\VISUAL STUDIO 2015\PROJECTS\ENTI 2016-2017 REDES\ENTI 2016-2017 REDES\SOURCE.CPP
C:\USERS\JJURADO\DOCUMENTS\VISUAL STUDIO 2015\PROJECTS\ENTI 2016-2017 REDES\ENTI 2016-2017 REDES\X64\DEBUG\VC140.PDB
C:\USERS\JJURADO\DOCUMENTS\VISUAL STUDIO 2015\PROJECTS\ENTI 2016-2017 REDES\ENTI 2016-2017 REDES\X64\DEBUG\VC140.IDB
C:\USERS\JJURADO\DOCUMENTS\VISUAL STUDIO 2015\PROJECTS\ENTI 2016-2017 REDES\ENTI 2016-2017 REDES\X64\DEBUG\SOURCE.OBJ
^C:\USERS\JJURADO\DOCUMENTS\VISUAL STUDIO 2015\PROJECTS\ENTI 2016-2017 REDES\ENTI 2016-2017 REDES\CODIGOCHAT1SOLO.CPP
C:\USERS\JJURADO\DOCUMENTS\VISUAL STUDIO 2015\PROJECTS\ENTI 2016-2017 REDES\ENTI 2016-2017 REDES\X64\DEBUG\VC140.PDB
C:\USERS\JJURADO\DOCUMENTS\VISUAL STUDIO 2015\PROJECTS\ENTI 2016-2017 REDES\ENTI 2016-2017 REDES\X64\DEBUG\VC140.IDB
C:\USERS\JJURADO\DOCUMENTS\VISUAL STUDIO 2015\PROJECTS\ENTI 2016-2017 REDES\ENTI 2016-2017 REDES\X64\DEBUG\CODIGOCHAT1SOLO.OBJ
^C:\USERS\JJURADO\ENTI 2016-2017 REDES\ENTI 2016-2017 REDES\SOURCE.CPP
C:\USERS\JJURADO\ENTI 2016-2017 REDES\ENTI 2016-2017 REDES\X64\DEBUG\VC140.PDB
C:\USERS\JJURADO\ENTI 2016-2017 REDES\ENTI 2016-2017 REDES\X64\DEBUG\VC140.IDB
C:\USERS\JJURADO\ENTI 2016-2017 REDES\ENTI 2016-2017 REDES\X64\DEBUG\SOURCE.OBJ
