^C:\USERS\JJURADO\DOCUMENTS\VISUAL STUDIO 2015\PROJECTS\ENTI 2016-2017 REDES\ENTI 2016-2017 REDES\X64\DEBUG\SOURCE.OBJ
/OUT:"C:\USERS\JJURADO\DOCUMENTS\VISUAL STUDIO 2015\PROJECTS\ENTI 2016-2017 REDES\X64\DEBUG\ENTI 2016-2017 REDES.EXE" /INCREMENTAL /NOLOGO /LIBPATH:"C:\USERS\JJURADO\DOCUMENTS\VISUAL STUDIO 2015\PROJECTS\ENTI 2016-2017 REDES\\DEPS64\LIB" WS2_32.LIB "SFML-NETWORK.LIB" "SFML-SYSTEM.LIB" "SFML-WINDOW.LIB" "SFML-GRAPHICS.LIB" KERNEL32.LIB USER32.LIB GDI32.LIB WINSPOOL.LIB COMDLG32.LIB ADVAPI32.LIB SHELL32.LIB OLE32.LIB OLEAUT32.LIB UUID.LIB ODBC32.LIB ODBCCP32.LIB KERNEL32.LIB USER32.LIB GDI32.LIB WINSPOOL.LIB COMDLG32.LIB ADVAPI32.LIB SHELL32.LIB OLE32.LIB OLEAUT32.LIB UUID.LIB ODBC32.LIB ODBCCP32.LIB /MANIFEST /MANIFESTUAC:"level='asInvoker' uiAccess='false'" /manifest:embed /DEBUG /PDB:"C:\USERS\JJURADO\DOCUMENTS\VISUAL STUDIO 2015\PROJECTS\ENTI 2016-2017 REDES\X64\DEBUG\ENTI 2016-2017 REDES.PDB" /SUBSYSTEM:CONSOLE /TLBID:1 /DYNAMICBASE /NXCOMPAT /IMPLIB:"C:\USERS\JJURADO\DOCUMENTS\VISUAL STUDIO 2015\PROJECTS\ENTI 2016-2017 REDES\X64\DEBUG\ENTI 2016-2017 REDES.LIB" /MACHINE:X64 X64\DEBUG\SOURCE.OBJ
^C:\USERS\JJURADO\ENTI 2016-2017 REDES\ENTI 2016-2017 REDES\X64\DEBUG\SOURCE.OBJ
/OUT:"C:\USERS\JJURADO\ENTI 2016-2017 REDES\X64\DEBUG\ENTI 2016-2017 REDES.EXE" /INCREMENTAL /NOLOGO /LIBPATH:"C:\USERS\JJURADO\ENTI 2016-2017 REDES\\DEPS64\LIB" WS2_32.LIB "SFML-NETWORK.LIB" "SFML-SYSTEM.LIB" "SFML-WINDOW.LIB" "SFML-GRAPHICS.LIB" KERNEL32.LIB USER32.LIB GDI32.LIB WINSPOOL.LIB COMDLG32.LIB ADVAPI32.LIB SHELL32.LIB OLE32.LIB OLEAUT32.LIB UUID.LIB ODBC32.LIB ODBCCP32.LIB KERNEL32.LIB USER32.LIB GDI32.LIB WINSPOOL.LIB COMDLG32.LIB ADVAPI32.LIB SHELL32.LIB OLE32.LIB OLEAUT32.LIB UUID.LIB ODBC32.LIB ODBCCP32.LIB /MANIFEST /MANIFESTUAC:"level='asInvoker' uiAccess='false'" /manifest:embed /DEBUG /PDB:"C:\USERS\JJURADO\ENTI 2016-2017 REDES\X64\DEBUG\ENTI 2016-2017 REDES.PDB" /SUBSYSTEM:CONSOLE /TLBID:1 /DYNAMICBASE /NXCOMPAT /IMPLIB:"C:\USERS\JJURADO\ENTI 2016-2017 REDES\X64\DEBUG\ENTI 2016-2017 REDES.LIB" /MACHINE:X64 X64\DEBUG\SOURCE.OBJ
