^C:\USERS\PERSEGAN\DESKTOP\ENTI 2016-2017 REDES\TALLER_5_SERVER\SOURCE.CPP
C:\USERS\PERSEGAN\DESKTOP\ENTI 2016-2017 REDES\TALLER_5_SERVER\X64\DEBUG\VC140.PDB
C:\USERS\PERSEGAN\DESKTOP\ENTI 2016-2017 REDES\TALLER_5_SERVER\X64\DEBUG\VC140.IDB
C:\USERS\PERSEGAN\DESKTOP\ENTI 2016-2017 REDES\TALLER_5_SERVER\X64\DEBUG\SOURCE.OBJ
