^U:\ENTI 2016-2017 REDES\TALLER_1\X64\DEBUG\CODIGOCHAT1SOLO.OBJ
/OUT:"U:\ENTI 2016-2017 REDES\X64\DEBUG\TALLER_1.EXE" /INCREMENTAL /NOLOGO /LIBPATH:"U:\ENTI 2016-2017 REDES\\DEPS64\LIB" "SFML-WINDOW-D.LIB" "SFML-SYSTEM-D.LIB" "SFML-NETWORK-D.LIB" "SFML-GRAPHICS-D.LIB" "SFML-AUDIO-D.LIB" WS2_32.LIB "SFML-NETWORK.LIB" "SFML-SYSTEM.LIB" "SFML-WINDOW.LIB" "SFML-GRAPHICS.LIB" KERNEL32.LIB USER32.LIB GDI32.LIB WINSPOOL.LIB COMDLG32.LIB ADVAPI32.LIB SHELL32.LIB OLE32.LIB OLEAUT32.LIB UUID.LIB ODBC32.LIB ODBCCP32.LIB KERNEL32.LIB USER32.LIB GDI32.LIB WINSPOOL.LIB COMDLG32.LIB ADVAPI32.LIB SHELL32.LIB OLE32.LIB OLEAUT32.LIB UUID.LIB ODBC32.LIB ODBCCP32.LIB /MANIFEST /MANIFESTUAC:"level='asInvoker' uiAccess='false'" /manifest:embed /DEBUG /PDB:"U:\ENTI 2016-2017 REDES\X64\DEBUG\TALLER_1.PDB" /SUBSYSTEM:CONSOLE /TLBID:1 /DYNAMICBASE /NXCOMPAT /IMPLIB:"U:\ENTI 2016-2017 REDES\X64\DEBUG\TALLER_1.LIB" /MACHINE:X64 X64\DEBUG\CODIGOCHAT1SOLO.OBJ
^C:\USERS\PERSEGAN\DESKTOP\ENTI 2016-2017 REDES\TALLER_1\X64\DEBUG\CODIGOCHAT1SOLO.OBJ
/OUT:"C:\USERS\PERSEGAN\DESKTOP\ENTI 2016-2017 REDES\X64\DEBUG\TALLER_1.EXE" /INCREMENTAL /NOLOGO /LIBPATH:"C:\USERS\PERSEGAN\DESKTOP\ENTI 2016-2017 REDES\\DEPS64\LIB" "SFML-WINDOW-D.LIB" "SFML-SYSTEM-D.LIB" "SFML-NETWORK-D.LIB" "SFML-GRAPHICS-D.LIB" "SFML-AUDIO-D.LIB" WS2_32.LIB "SFML-NETWORK.LIB" "SFML-SYSTEM.LIB" "SFML-WINDOW.LIB" "SFML-GRAPHICS.LIB" KERNEL32.LIB USER32.LIB GDI32.LIB WINSPOOL.LIB COMDLG32.LIB ADVAPI32.LIB SHELL32.LIB OLE32.LIB OLEAUT32.LIB UUID.LIB ODBC32.LIB ODBCCP32.LIB KERNEL32.LIB USER32.LIB GDI32.LIB WINSPOOL.LIB COMDLG32.LIB ADVAPI32.LIB SHELL32.LIB OLE32.LIB OLEAUT32.LIB UUID.LIB ODBC32.LIB ODBCCP32.LIB /MANIFEST /MANIFESTUAC:"level='asInvoker' uiAccess='false'" /manifest:embed /Debug /PDB:"C:\USERS\PERSEGAN\DESKTOP\ENTI 2016-2017 REDES\X64\DEBUG\TALLER_1.PDB" /SUBSYSTEM:CONSOLE /TLBID:1 /DYNAMICBASE /NXCOMPAT /IMPLIB:"C:\USERS\PERSEGAN\DESKTOP\ENTI 2016-2017 REDES\X64\DEBUG\TALLER_1.LIB" /MACHINE:X64 X64\DEBUG\CODIGOCHAT1SOLO.OBJ
^C:\USERS\JJURADO\ENTI 2016-2017 REDES\TALLER_1\X64\DEBUG\CODIGOCHAT1SOLO.OBJ
/OUT:"C:\USERS\JJURADO\ENTI 2016-2017 REDES\X64\DEBUG\TALLER_1.EXE" /INCREMENTAL /NOLOGO /LIBPATH:"C:\USERS\JJURADO\ENTI 2016-2017 REDES\\DEPS64\LIB" "SFML-WINDOW-D.LIB" "SFML-SYSTEM-D.LIB" "SFML-NETWORK-D.LIB" "SFML-GRAPHICS-D.LIB" "SFML-AUDIO-D.LIB" WS2_32.LIB "SFML-NETWORK.LIB" "SFML-SYSTEM.LIB" "SFML-WINDOW.LIB" "SFML-GRAPHICS.LIB" KERNEL32.LIB USER32.LIB GDI32.LIB WINSPOOL.LIB COMDLG32.LIB ADVAPI32.LIB SHELL32.LIB OLE32.LIB OLEAUT32.LIB UUID.LIB ODBC32.LIB ODBCCP32.LIB KERNEL32.LIB USER32.LIB GDI32.LIB WINSPOOL.LIB COMDLG32.LIB ADVAPI32.LIB SHELL32.LIB OLE32.LIB OLEAUT32.LIB UUID.LIB ODBC32.LIB ODBCCP32.LIB /MANIFEST /MANIFESTUAC:"level='asInvoker' uiAccess='false'" /manifest:embed /DEBUG /PDB:"C:\USERS\JJURADO\ENTI 2016-2017 REDES\X64\DEBUG\TALLER_1.PDB" /SUBSYSTEM:CONSOLE /TLBID:1 /DYNAMICBASE /NXCOMPAT /IMPLIB:"C:\USERS\JJURADO\ENTI 2016-2017 REDES\X64\DEBUG\TALLER_1.LIB" /MACHINE:X64 X64\DEBUG\CODIGOCHAT1SOLO.OBJ
