^C:\USERS\PERSEGAN\DESKTOP\ENTI 2016-2017 REDES\EXAM_PEER_2\X64\DEBUG\SOURCE.OBJ
C:\WINDOWS\GLOBALIZATION\SORTING\SORTDEFAULT.NLS
C:\WINDOWS\SYSTEM32\C_1252.NLS
C:\USERS\PERSEGAN\DESKTOP\ENTI 2016-2017 REDES\DEPS64\LIB\SFML-WINDOW-D.LIB
C:\USERS\PERSEGAN\DESKTOP\ENTI 2016-2017 REDES\DEPS64\LIB\SFML-SYSTEM-D.LIB
C:\USERS\PERSEGAN\DESKTOP\ENTI 2016-2017 REDES\DEPS64\LIB\SFML-NETWORK-D.LIB
C:\USERS\PERSEGAN\DESKTOP\ENTI 2016-2017 REDES\DEPS64\LIB\SFML-GRAPHICS-D.LIB
C:\USERS\PERSEGAN\DESKTOP\ENTI 2016-2017 REDES\DEPS64\LIB\SFML-AUDIO-D.LIB
C:\PROGRAM FILES (X86)\WINDOWS KITS\8.1\LIB\WINV6.3\UM\X64\WS2_32.LIB
C:\USERS\PERSEGAN\DESKTOP\ENTI 2016-2017 REDES\DEPS64\LIB\SFML-NETWORK.LIB
C:\USERS\PERSEGAN\DESKTOP\ENTI 2016-2017 REDES\DEPS64\LIB\SFML-SYSTEM.LIB
C:\USERS\PERSEGAN\DESKTOP\ENTI 2016-2017 REDES\DEPS64\LIB\SFML-WINDOW.LIB
C:\USERS\PERSEGAN\DESKTOP\ENTI 2016-2017 REDES\DEPS64\LIB\SFML-GRAPHICS.LIB
C:\USERS\PERSEGAN\DESKTOP\ENTI 2016-2017 REDES\DEPS64\LIB\SFML-AUDIO.LIB
C:\PROGRAM FILES (X86)\WINDOWS KITS\8.1\LIB\WINV6.3\UM\X64\KERNEL32.LIB
C:\PROGRAM FILES (X86)\WINDOWS KITS\8.1\LIB\WINV6.3\UM\X64\USER32.LIB
C:\PROGRAM FILES (X86)\WINDOWS KITS\8.1\LIB\WINV6.3\UM\X64\GDI32.LIB
C:\PROGRAM FILES (X86)\WINDOWS KITS\8.1\LIB\WINV6.3\UM\X64\WINSPOOL.LIB
C:\PROGRAM FILES (X86)\WINDOWS KITS\8.1\LIB\WINV6.3\UM\X64\COMDLG32.LIB
C:\PROGRAM FILES (X86)\WINDOWS KITS\8.1\LIB\WINV6.3\UM\X64\ADVAPI32.LIB
C:\PROGRAM FILES (X86)\WINDOWS KITS\8.1\LIB\WINV6.3\UM\X64\SHELL32.LIB
C:\PROGRAM FILES (X86)\WINDOWS KITS\8.1\LIB\WINV6.3\UM\X64\OLE32.LIB
C:\PROGRAM FILES (X86)\WINDOWS KITS\8.1\LIB\WINV6.3\UM\X64\OLEAUT32.LIB
C:\PROGRAM FILES (X86)\WINDOWS KITS\8.1\LIB\WINV6.3\UM\X64\UUID.LIB
C:\PROGRAM FILES (X86)\WINDOWS KITS\8.1\LIB\WINV6.3\UM\X64\ODBC32.LIB
C:\PROGRAM FILES (X86)\WINDOWS KITS\8.1\LIB\WINV6.3\UM\X64\ODBCCP32.LIB
C:\USERS\PERSEGAN\DESKTOP\ENTI 2016-2017 REDES\EXAM_PEER_2\X64\DEBUG\SOURCE.OBJ
C:\WINDOWS\SYSTEM32\TZRES.DLL
C:\PROGRAM FILES (X86)\MICROSOFT VISUAL STUDIO 14.0\VC\LIB\AMD64\MSVCPRTD.LIB
C:\PROGRAM FILES (X86)\MICROSOFT VISUAL STUDIO 14.0\VC\LIB\AMD64\MSVCRTD.LIB
C:\PROGRAM FILES (X86)\MICROSOFT VISUAL STUDIO 14.0\VC\LIB\AMD64\OLDNAMES.LIB
C:\PROGRAM FILES (X86)\MICROSOFT VISUAL STUDIO 14.0\VC\LIB\AMD64\VCRUNTIMED.LIB
C:\PROGRAM FILES (X86)\WINDOWS KITS\10\LIB\10.0.10240.0\UCRT\X64\UCRTD.LIB
C:\PROGRAM FILES (X86)\WINDOWS KITS\8.1\BIN\X86\RC.EXE
C:\PROGRAM FILES (X86)\MICROSOFT VISUAL STUDIO 14.0\VC\BIN\CVTRES.EXE
C:\WINDOWS\SYSTEM32\RSAENH.DLL
