^C:\USERS\PERSEGAN\DESKTOP\ENTI 2016-2017 REDES\TALLER_3_CLIENT\X64\RELEASE\SOURCE.OBJ
C:\USERS\PERSEGAN\DESKTOP\ENTI 2016-2017 REDES\X64\RELEASE\TALLER_3_CLIENT.EXE
C:\USERS\PERSEGAN\DESKTOP\ENTI 2016-2017 REDES\X64\RELEASE\TALLER_3_CLIENT.IPDB
C:\USERS\PERSEGAN\DESKTOP\ENTI 2016-2017 REDES\X64\RELEASE\TALLER_3_CLIENT.IOBJ
C:\USERS\PERSEGAN\DESKTOP\ENTI 2016-2017 REDES\X64\RELEASE\TALLER_3_CLIENT.PDB
