^C:\USERS\JJURADO\ENTI 2016-2017 REDES\TALLER_1\CODIGOCHAT1SOLO.CPP
C:\USERS\JJURADO\ENTI 2016-2017 REDES\TALLER_1\X64\DEBUG\VC140.PDB
C:\USERS\JJURADO\ENTI 2016-2017 REDES\TALLER_1\X64\DEBUG\VC140.IDB
C:\USERS\JJURADO\ENTI 2016-2017 REDES\TALLER_1\X64\DEBUG\CODIGOCHAT1SOLO.OBJ
^C:\USERS\PERSEGAN\DESKTOP\ENTI 2016-2017 REDES\TALLER_1\CODIGOCHAT1SOLO.CPP
C:\USERS\PERSEGAN\DESKTOP\ENTI 2016-2017 REDES\TALLER_1\X64\DEBUG\VC140.PDB
C:\USERS\PERSEGAN\DESKTOP\ENTI 2016-2017 REDES\TALLER_1\X64\DEBUG\VC140.IDB
C:\USERS\PERSEGAN\DESKTOP\ENTI 2016-2017 REDES\TALLER_1\X64\DEBUG\CODIGOCHAT1SOLO.OBJ
